---
http_interactions:
- request:
    method: get
    uri: https://UXpj28zjyvQ20exTENfVqm1Ydcy7TjM2:@api.hellobond.com/orders
    body:
      encoding: US-ASCII
      string: ''
    headers:
      User-Agent:
      - Faraday v0.9.1
      Accept-Encoding:
      - gzip;q=1.0,deflate;q=0.6,identity;q=0.3
      Accept:
      - "*/*"
  response:
    status:
      code: 200
      message: OK
    headers:
      Cache-Control:
      - no-cache
      Content-Type:
      - application/json
      Date:
      - Fri, 14 Aug 2015 11:56:51 GMT
      Server:
      - Apache
      Vary:
      - Accept-Encoding
      X-Powered-By:
      - PHP/5.5.26
      Content-Length:
      - '147'
      Connection:
      - keep-alive
    body:
      encoding: ASCII-8BIT
      string: '{"data":[{"guid":"54f0-b9d4-947e-7","created_at":"2015-01-01 12:00:00","status":"complete","products":[{"id":1,"type":"stationery","name":"Big Brother is Watching","quantity":1,"price":2.99,"total":2.99}],"shipping":{"total":0.49},"total":3.48,"links":{"messages":"https://api.hellobond.com/orders/54f0-b9d4-947e-7/messages"}},{"guid":"54f0-b9d4-947e-7","created_at":"2015-01-01 12:00:00","status":"processing","products":[{"id":1,"type":"stationery","name":"Big Brother is Watching","quantity":1,"price":2.99,"total":2.99}],"shipping":{"total":0.49},"total":3.48,"links":{"messages":"https://api.hellobond.com/orders/54f0-b9d4-947e-7/messages"}}],"pagination":{"total":26,"per_page":25,"current_page":1,"total_pages":2,"prev_url":null,"next_url":"https://api.hellobond.com/orders?page=2"}}'
    http_version: 
  recorded_at: Fri, 14 Aug 2015 11:56:51 GMT
recorded_with: VCR 2.9.3
